{
    "output": {
        "blocklist": [],
        "equalizer#0": {
            "balance": 0.0,
            "bypass": false,
            "input-gain": -0.11,
            "left": {
                "band0": {
                    "frequency": 105.0,
                    "gain": 0.0,
                    "mode": "APO (DR)",
                    "mute": false,
                    "q": 0.699999988079071,
                    "slope": "x1",
                    "solo": false,
                    "type": "Lo-shelf",
                    "width": 4.0
                },
                "band1": {
                    "frequency": 1203.5999755859375,
                    "gain": 1.0,
                    "mode": "APO (DR)",
                    "mute": false,
                    "q": 0.75,
                    "slope": "x1",
                    "solo": false,
                    "type": "Bell",
                    "width": 4.0
                },
                "band2": {
                    "frequency": 1567.5999755859375,
                    "gain": 2.700000047683716,
                    "mode": "APO (DR)",
                    "mute": false,
                    "q": 1.6799999475479126,
                    "slope": "x1",
                    "solo": false,
                    "type": "Bell",
                    "width": 4.0
                },
                "band3": {
                    "frequency": 2025.4000244140625,
                    "gain": -2.0999999046325684,
                    "mode": "APO (DR)",
                    "mute": false,
                    "q": 2.6700000762939453,
                    "slope": "x1",
                    "solo": false,
                    "type": "Bell",
                    "width": 4.0
                },
                "band4": {
                    "frequency": 2046.0,
                    "gain": 0.6000000238418579,
                    "mode": "APO (DR)",
                    "mute": false,
                    "q": 1.600000023841858,
                    "slope": "x1",
                    "solo": false,
                    "type": "Bell",
                    "width": 4.0
                },
                "band5": {
                    "frequency": 2841.89990234375,
                    "gain": -11.199999809265137,
                    "mode": "APO (DR)",
                    "mute": false,
                    "q": 1.0399999618530273,
                    "slope": "x1",
                    "solo": false,
                    "type": "Bell",
                    "width": 4.0
                },
                "band6": {
                    "frequency": 4585.2001953125,
                    "gain": 3.0,
                    "mode": "APO (DR)",
                    "mute": false,
                    "q": 4.139999866485596,
                    "slope": "x1",
                    "solo": false,
                    "type": "Bell",
                    "width": 4.0
                },
                "band7": {
                    "frequency": 5612.89990234375,
                    "gain": -3.299999952316284,
                    "mode": "APO (DR)",
                    "mute": false,
                    "q": 5.659999847412109,
                    "slope": "x1",
                    "solo": false,
                    "type": "Bell",
                    "width": 4.0
                },
                "band8": {
                    "frequency": 8123.39990234375,
                    "gain": -9.300000190734863,
                    "mode": "APO (DR)",
                    "mute": false,
                    "q": 1.2000000476837158,
                    "slope": "x1",
                    "solo": false,
                    "type": "Bell",
                    "width": 4.0
                },
                "band9": {
                    "frequency": 10000.0,
                    "gain": -0.10000000149011612,
                    "mode": "APO (DR)",
                    "mute": false,
                    "q": 0.699999988079071,
                    "slope": "x1",
                    "solo": false,
                    "type": "Hi-shelf",
                    "width": 4.0
                }
            },
            "mode": "IIR",
            "num-bands": 10,
            "output-gain": -1.6,
            "pitch-left": 0.0,
            "pitch-right": 0.0,
            "right": {
                "band0": {
                    "frequency": 105.0,
                    "gain": 0.0,
                    "mode": "APO (DR)",
                    "mute": false,
                    "q": 0.699999988079071,
                    "slope": "x1",
                    "solo": false,
                    "type": "Lo-shelf",
                    "width": 4.0
                },
                "band1": {
                    "frequency": 1203.5999755859375,
                    "gain": 1.0,
                    "mode": "APO (DR)",
                    "mute": false,
                    "q": 0.75,
                    "slope": "x1",
                    "solo": false,
                    "type": "Bell",
                    "width": 4.0
                },
                "band2": {
                    "frequency": 1567.5999755859375,
                    "gain": 2.700000047683716,
                    "mode": "APO (DR)",
                    "mute": false,
                    "q": 1.6799999475479126,
                    "slope": "x1",
                    "solo": false,
                    "type": "Bell",
                    "width": 4.0
                },
                "band3": {
                    "frequency": 2025.4000244140625,
                    "gain": -2.0999999046325684,
                    "mode": "APO (DR)",
                    "mute": false,
                    "q": 2.6700000762939453,
                    "slope": "x1",
                    "solo": false,
                    "type": "Bell",
                    "width": 4.0
                },
                "band4": {
                    "frequency": 2046.0,
                    "gain": 0.6000000238418579,
                    "mode": "APO (DR)",
                    "mute": false,
                    "q": 1.600000023841858,
                    "slope": "x1",
                    "solo": false,
                    "type": "Bell",
                    "width": 4.0
                },
                "band5": {
                    "frequency": 2841.89990234375,
                    "gain": -11.199999809265137,
                    "mode": "APO (DR)",
                    "mute": false,
                    "q": 1.0399999618530273,
                    "slope": "x1",
                    "solo": false,
                    "type": "Bell",
                    "width": 4.0
                },
                "band6": {
                    "frequency": 4585.2001953125,
                    "gain": 3.0,
                    "mode": "APO (DR)",
                    "mute": false,
                    "q": 4.139999866485596,
                    "slope": "x1",
                    "solo": false,
                    "type": "Bell",
                    "width": 4.0
                },
                "band7": {
                    "frequency": 5612.89990234375,
                    "gain": -3.299999952316284,
                    "mode": "APO (DR)",
                    "mute": false,
                    "q": 5.659999847412109,
                    "slope": "x1",
                    "solo": false,
                    "type": "Bell",
                    "width": 4.0
                },
                "band8": {
                    "frequency": 8123.39990234375,
                    "gain": -9.300000190734863,
                    "mode": "APO (DR)",
                    "mute": false,
                    "q": 1.2000000476837158,
                    "slope": "x1",
                    "solo": false,
                    "type": "Bell",
                    "width": 4.0
                },
                "band9": {
                    "frequency": 10000.0,
                    "gain": -0.10000000149011612,
                    "mode": "APO (DR)",
                    "mute": false,
                    "q": 0.699999988079071,
                    "slope": "x1",
                    "solo": false,
                    "type": "Hi-shelf",
                    "width": 4.0
                }
            },
            "split-channels": false
        },
        "plugins_order": [
            "equalizer#0"
        ]
    }
}
